classes= 2
train  = /media/uncanny/e02b33a6-9c41-42f1-a2d3-95fbc3807f96/SHREEJAL_SYSTEM/Test/yolov3_rpn/train.txt
valid  = /media/uncanny/e02b33a6-9c41-42f1-a2d3-95fbc3807f96/SHREEJAL_SYSTEM/Test/yolov3_rpn/coco_validate.txt
#names = data/person.names
names = data/ingram.names
backup = /media/uncanny/e02b33a6-9c41-42f1-a2d3-95fbc3807f96/SHREEJAL_SYSTEM/Test/yolov3_rpn/backup
#eval=coco

