0 0.80 0.06 0.01 0.02
1 0.80 0.06 0.01 0.02
1 0.80 0.06 0.02 0.02
1 0.80 0.06 0.02 0.02
1 0.80 0.06 0.02 0.02
1 0.80 0.06 0.01 0.02
-1 0.71 0.03 0.00 -0.06
-1 0.72 0.03 0.00 -0.05
-1 0.72 0.03 0.00 -0.07
-1 0.74 0.03 0.00 -0.05
-1 0.74 0.03 0.00 -0.05
-1 0.71 0.03 0.00 -0.06
-1 0.72 0.03 0.00 -0.05
-1 0.74 0.03 0.00 -0.05
-1 0.71 0.03 0.00 -0.05
-1 0.74 0.03 0.00 -0.05
