0 0.46 0.06 0.03 0.03
1 0.46 0.06 0.03 0.03
1 0.47 0.07 0.04 0.03
1 0.46 0.07 0.03 0.04
1 0.46 0.06 0.03 0.03
1 0.46 0.07 0.04 0.04
-1 0.69 0.20 0.00 -0.41
-1 0.61 0.03 0.00 -0.06
-1 0.27 0.14 0.00 -0.19
-1 0.61 0.03 0.00 -0.05
-1 0.52 0.11 0.00 -0.22
-1 0.24 0.10 0.00 -0.18
-1 0.25 0.12 0.00 -0.23
-1 0.27 0.12 0.00 -0.23
-1 0.66 0.02 0.00 -0.04
-1 0.61 0.03 0.00 -0.06
