0 0.26 0.08 0.04 0.06
1 0.26 0.08 0.04 0.06
1 0.26 0.08 0.04 0.06
1 0.26 0.08 0.04 0.07
1 0.26 0.08 0.04 0.07
1 0.26 0.08 0.05 0.07
-1 0.58 0.21 0.08 0.07
-1 0.18 0.74 0.08 0.07
-1 0.32 0.39 0.06 0.05
-1 0.52 0.47 0.08 0.07
-1 0.23 0.62 0.03 0.10
-1 0.62 0.21 0.06 0.10
-1 0.82 0.39 0.08 0.07
-1 0.58 0.24 0.07 0.06
-1 0.38 0.06 0.04 0.07
-1 0.33 0.36 0.06 0.05
